no\ntnu\bidata\idatt2001\patientRegister\core\Patient.class
no\ntnu\bidata\idatt2001\patientRegister\core\PatientRegister.class
no\ntnu\bidata\idatt2001\patientRegister\gui\AlertFactory.class
no\ntnu\bidata\idatt2001\patientRegister\Main.class
no\ntnu\bidata\idatt2001\patientRegister\utils\enums\PatientRegisterAlertTypes.class
module-info.class
no\ntnu\bidata\idatt2001\patientRegister\gui\Controller.class
no\ntnu\bidata\idatt2001\patientRegister\utils\CSVBroker.class
no\ntnu\bidata\idatt2001\patientRegister\gui\AlertFactory$1.class
